%YAML 1.1
%TAG !u! tag:unity3d.com,2011:
--- !u!1045 &1
EditorBuildSettings:
  m_ObjectHideFlags: 0
  serializedVersion: 2
  m_Scenes:
  - enabled: 1
    path: Assets/Scenes/MainMenu.unity
    guid: 6a41dc5c1b02db74bb2c50a6d14c534c
  - enabled: 1
    path: Assets/Scenes/Main.unity
    guid: 9fc0d4010bbf28b4594072e72b8655ab
  - enabled: 1
    path: Assets/Scenes/Game.unity
    guid: 9b5c53aacca6536498e1af12503304d2
  - enabled: 1
    path: Assets/Scenes/GameOver.unity
    guid: c0891eda6ec8297469a44da049f40617
  m_configObjects: {}
